DLD/CA2/test1.vcd
$d
	Wed Apr 13 11:09:26 2022
$end
$version
	Icarus Verilog
$end
$timescale
	1ns
$end
$scope module test2 $end
$var wire 1 ! L1 $end
$var wire 1 " L $end
$var wire 1 # G1 $end
$var wire 1 $ G $end
$var wire 1 % E1 $end
$var wire 1 & E $end
$var reg 4 ' aa [3:0] $end
$var reg 4 ( bb [3:0] $end
$var reg 1 ) e $end
$var reg 1 * g $end
$var reg 1 + l $end
$scope module q2 $end
$var wire 4 , a [3:0] $end
$var wire 4 - b [3:0] $end
$var wire 1 ) e $end
$var wire 1 * g $end
$var wire 1 + l $end
$var wire 1 " L $end
$var wire 1 $ G $end
$var wire 1 & E $end
$scope module r0 $end
$var wire 1 . a $end
$var wire 1 / b $end
$var wire 1 ) e $end
$var wire 1 * g $end
$var wire 1 + l $end
$var wire 1 0 L $end
$var wire 1 1 G $end
$var wire 1 2 E $end
$upscope $end
$scope module r1 $end
$var wire 1 3 a $end
$var wire 1 4 b $end
$var wire 1 2 e $end
$var wire 1 1 g $end
$var wire 1 0 l $end
$var wire 1 5 L $end
$var wire 1 6 G $end
$var wire 1 7 E $end
$upscope $end
$scope module r2 $end
$var wire 1 8 a $end
$var wire 1 9 b $end
$var wire 1 7 e $end
$var wire 1 6 g $end
$var wire 1 5 l $end
$var wire 1 : L $end
$var wire 1 ; G $end
$var wire 1 < E $end
$upscope $end
$scope module r3 $end
$var wire 1 = a $end
$var wire 1 > b $end
$var wire 1 < e $end
$var wire 1 ; g $end
$var wire 1 : l $end
$var wire 1 " L $end
$var wire 1 $ G $end
$var wire 1 & E $end
$upscope $end
$upscope $end
$scope module q2d $end
$var wire 4 ? a [3:0] $end
$var wire 4 @ b [3:0] $end
$var wire 1 ) e $end
$var wire 1 * g $end
$var wire 1 + l $end
$var wire 1 ! L $end
$var wire 1 # G $end
$var wire 1 % E $end
$upscope $end
$upscope $end
$enddefinitions $end
#0
$dumpvars
b0 @
b1 ?
0>
0=
x<
x;
x:
09
08
x7
x6
x5
04
03
x2
x1
x0
0/
1.
b0 -
b1 ,
0+
0*
1)
b0 (
b1 '
x&
x%
x$
x#
x"
x!
$end
#15
11
0!
1#
00
#20
02
0%
#30
16
05
#40
07
#45
1;
0:
#60
1$
0"
0<
#80
0&
#2000
19
b100 (
b100 -
b100 @
#2015
1:
0;
1!
0#
#2030
1"
0$
#4000
09
1>
b1000 (
b1000 -
b1000 @
#4015
0:
1;
#4500
0.
1=
b1000 '
b1000 ,
b1000 ?
#4515
01
0"
1$
0!
#4520
12
#4530
06
#4540
17
#4545
0;
#4560
0$
1<
#4580
1&
1%
#6000
19
b1100 (
b1100 -
b1100 @
#6015
1:
1!
#6020
0<
0%
#6030
1"
#6040
0&
#8000
09
0>
b0 (
b0 -
b0 @
#8015
0"
1$
0:
0!
1#
#8020
1<
#9000
0=
b0 '
b0 ,
b0 ?
#9015
0$
0#
#9020
1&
#9080
1%
#10000
19
b100 (
b100 -
b100 @
#10015
1:
1!
#10020
0<
0%
#10030
1"
#10040
0&
#12000
09
1>
b1000 (
b1000 -
b1000 @
#12015
0:
#12020
1<
#13500
1=
b1000 '
b1000 ,
b1000 ?
#13515
0"
0!
#13520
1&
#13580
1%
#14000
19
b1100 (
b1100 -
b1100 @
#14015
1:
1!
#14020
0<
0%
#14030
1"
#14040
0&
#16000
09
0>
b0 (
b0 -
b0 @
#16015
0"
1$
0:
0!
1#
#16020
1<
#18000
19
0=
b100 (
b100 -
b100 @
b0 '
b0 ,
b0 ?
#18015
0$
1:
1!
0#
#18020
1&
0<
#18030
1"
#18040
0&
#20000
09
1>
b1000 (
b1000 -
b1000 @
#20015
0:
#20020
1<
#21000
0>
b0 (
b0 -
b0 @
#21015
0"
0!
#21020
1&
#21080
1%
